{
	"preambleInitList":[
		"La\\s+Camera\\s+dei\\s+deputati\\s+ed\\s+il\\s+Senato\\s+della\\s+Repubblica\\s+hanno\\s+approvato[;,:]\\s+IL\\s+PRESIDENTE\\s+DELLA\\s+REPUBBLICA",
		"IL\\s+MINISTRO\\s+DEL\\s+LAVORO\\s+E\\s+DELLE\\s+POLITICHE\\s+SOCIALI\\s+di\\s+concerto\\s+",
		"IL MINISTRO DELL'UNIVERSITA' E DELLA RICERCA SCIENTIFICA E TECNOLOGICA",
		"IL\\s+PRESIDENTE\\s+DELLA\\s+REPUBBLICA",
		"IL MINISTRO DELL'ECONOMIA E DELLE FINANZE",
		"L'ISTITUTO PER LA VIGILANZA SULLE ASSICURAZIONI",
		"IL DIRETTORE GENERALE\\s+DEL TESORO",
		"IL DIRETTORE GENERALE",
		"IL CAPO DEL DIPARTIMENTO",
		"IL CAPO DEL DIPARTIMENTO DELLA PROTEZIONE CIVILE",
		"IL MINISTRO DELLA GIUSTIZIA",
		"Attesto che",
		"Il [Cc]onsiglio regionale ha approvato\\.?",
		"omissis",
		"Avvertenza:",
		"IL MINISTRO DELLA MARINA MERCANTILE DI CONCERTO CON IL MINISTRO DEL LAVORO E DELLA PREVIDENZA SOCIALE E IL MINISTRO DEL TESORO",
		"IL MINISTRO DELL'INDUSTRIA DEL COMMERCIO E DELL'ARTIGIANATO DI CONCERTO CON IL MINISTRO DELL'AGRICOLTURA E DELLE FORESTE",
		"IL MINISTRO DELLA SANITA' DI CONCERTO CON IL MINISTRO DEL TESORO E IL MINISTRO DEL LAVORO E DELLA PREVIDENZA SOCIALE",
		"IL MINISTRO DELLE POSTE E DELLE TELECOMUNICAZIONI DI CONCERTO CON IL MINISTRO DEL LAVORO E DELLA PREVIDENZA SOCIALE",
		"IL MINISTRO DI GRAZIA E GIUSTIZIA DI CONCERTO CON IL MINISTRO DELL'INDUSTRIA DEL COMMERCIO E DELL'ARTIGIANATO",
		"IL MINISTRO DEL LAVORO E DELLA PREVIDENZA SOCIALE DI CONCERTO CON IL MINISTRO DELLE PARTECIPAZIONI STATALI",
		"IL MINISTRO DELLA SANITA' DI CONCERTO CON IL MINISTRO PER LA FUNZIONE PUBBLICA E IL MINISTRO DEL TESORO",
		"IL MINISTRO DEL TESORO DI CONCERTO CON IL MINISTRO PER GLI AFFARI REGIONALI ED I PROBLEMI ISTITUZIONALI",
		"IL MINISTRO DEI TRASPORTI DI CONCERTO CON I MINISTRI DEI LAVORI PUBBLICI, DELLA SANITA' E DELL'INTERNO",
		"IL MINISTRO DELL'INDUSTRIA DEL COMMERCIO E DELL'ARTIGIANATO DI CONCERTO CON IL MINISTRO DELLA SANITA'",
		"IL MINISTRO DEI TRASPORTI DI CONCERTO CON I MINISTRI DEI LAVORI PUBBLICI, DELLA SANITAE DELL'INTERNO",
		"IL MINISTRO PER GLI INTERVENTI STRAORDINARI NEL MEZZOGIORNO D'INTESA CON IL MINISTRO DEL TESORO",
		"IL MINISTRO DELLA SANITA' DI CONCERTO CON IL MINISTRO DELL'AGRICOLTURA E DELLE FORESTE",
		"IL MINISTRO DELL'AGRICOLTURA E DELLE FORESTE DI CONCERTO CON IL MINISTRO DELLA SANITA'",
		"IL MINISTRO DELL'AGRICOLTURA E DELLE FORESTE DI CONCERTO CON IL MINISTRO DELLE FINANZE",
		"IL MINISTRO DELLA SANITA' DI CONCERTO CON I MINISTRI DELL'AGRICOLTURA E DELLE FORESTE",
		"IL MINISTRO DELL'AGRICOLTURA E DELLE FORESTE DI CONCERTO CON IL MINISTRO DEL TESORO",
		"IL MINISTRO DEL COMMERCIO CON L'ESTERO DI CONCERTO CON IL MINISTRO DELLE FINANZE",
		"IL MINISTRO DEL COMMERCIO CON L'ESTERO DI CONCERTO CON IL MINISTRO DELLE FINANZE",
		"IL MINISTRO DELL'INTERNO DI CONCERTO CON IL MINISTRO PER LA FUNZIONE PUBBLICA",
		"IL MINISTRO DELLA MARINA MERCANTILE DI CONCERTO CON IL MINISTRO DEI TRASPORTI",
		"IL MINISTRO DELLA MARINA MERCANTILE DI CONCERTO CON IL MINISTRO DELL'AMBIENTE",
		"IL MINISTRO DELLA SANITA' DI CONCERTO CON IL MINISTRO PER GLI AFFARI SOCIALI",
		"IL MINISTRO DEI LAVORI PUBBLICI DI CONCERTO CON IL MINISTRO DEI TRASPORTI",
		"IL MINISTRO DEI TRASPORTI DI CONCERTO CON IL MINISTRO DEI LAVORI PUBBLICI",
		"IL MINISTRO DEI LAVORI PUBBLICI DI CONCERTO CON IL MINISTRO DELL'INTERNO",
		"IL MINISTRO DI GRAZIA E GIUSTIZIA DI CONCERTO CON IL MINISTRO DEL TESORO",
		"IL MINISTRO DEGLI AFFARI ESTERI DI CONCERTO CON IL MINISTRO DEL TESORO",
		"IL MINISTRO DEI TRASPORTI DI CONCERTO CON IL MINISTRO DELLA SANITA'",
		"IL MINISTRO DELLA SANITA' DI CONCERTO CON IL MINISTRO DELL'AMBIENTE",
		"IL MINISTRO DELL'INTERNO DI CONCERTO CON IL MINISTRO DEL TESORO",
		"IL MINISTRO DELL'INDUSTRIA DEL COMMERCIO E DELL'ARTIGIANATO",
		"IL MINISTRO PER GLI INTERVENTI STRAORDINARI NEL MEZZOGIORNO",
		"IL MINISTRO DEL LAVORO E DELLA PREVIDENZA SOCIALE",
		"IL MINISTRO DELLE POSTE E DELLE TELECOMUNICAZIONI",
		"IL MINISTRO DELLA MARINA MERCANTILE DI CONCERTO",
		"IL MINISTRO DELL'AGRICOLTURA E DELLE FORESTE",
		"IL MINISTRO DEL TURISMO E DELLO SPETTACOLO",
		"IL MINISTRO DELLA MARINA MERCANTILE",
		"IL MINISTRO DI GRAZIA E GIUSTIZIA",
		"IL MINISTRO DEI LAVORI PUBBLICI",
		"IL MINISTRO DELLE FINANZE",
		"IL MINISTRO DEI TRASPORTI",
		"IL MINISTRO DELLA SANITA'",
		"IL MINISTRO DELLA DIFESA",
		"IL MINISTRO DELL'INTERNO",
		"IL MINISTRO DEL TESORO"
	],
	"preambleEndList": [
		"\\s*E\\s*m\\s*a\\s*n\\s*a\\s+(I|i)l\\s*seguente\\s*(R|r)egolamento: Il regolamento approvato con decreto ministeriale 10 aprile 1987, n. 261, e' integrato come segue:?",
		"\\s*E\\s*m\\s*a\\s*n\\s*a\\s+(I|i)l\\s*seguente\\s*(R|r)egolamento:?",
		"\\s*E\\s*m\\s*a\\s*n\\s*a\\s+(i|I)l +seguente +decreto(-| +)legge:?",
		"\\s*E\\s*m\\s*a\\s*n\\s*a\\s+(I|i)l seguente decreto legislativo:?",
		"(P|p)(romulga|ROMULGA)\\s+(I|i)l\\s*seguente\\s*(R|r)egolamento:?",
		"(P|p)(romulga|ROMULGA)\\s+(i|I)l +seguente +decreto(-| +)legge:?",
		"(P|p)(romulga|ROMULGA)\\s+(I|i)l seguente decreto legislativo:?",
		"\\s*E\\s*m\\s*a\\s*n\\s*a\\s+(L|l)a +seguente +(L|l)egge:?",
		"(P|p)(romulga|ROMULGA)\\s+(l|L)a +seguente +(L|l)egge:?",
		"EMANA\\s+(I|i)l\\s*seguente\\s*(R|r)egolamento:?",
		"EMANA\\S+(i|I)l +seguente +decreto(-| +)legge:?",
		"(P|p)(romulga|ROMULGA)\\s+LA +SEGUENTE +LEGGE:?",
		"EMANA\\s+(I|i)l seguente decreto legislativo:?",
		"A d o t t a il seguente provvedimento:",
		"EMANA\\s+(l|L) +seguente +(L|l)egge:?",
		"A d o t t a il seguente regolamento:",
		"E M A N A il seguente decreto-legge:",
		"Adotta il seguente provvedimento:",
		"Adotta il seguente regolamento:",
		"Attesto che",
		"Determina:",
		"Decreta:?",
		"Dispone:"
	],
	"patterns":[
		"({{preambleInitList}})",
		"({{preambleEndList}})"
	]
}
