{
  "legge": [
	"(l\\.?",
	"leg\\.",
	"legge)"
  ],
  "leggecost": [
	"({{legge}} cost\\.?",
	"{{legge}} costituzionale?)"
  ],
  "dl": [
	"(decreto {{legge}}",
	"d[\\. ]*{{legge}})"
  ],
  "dlgs": [
	"(decreto legislativo",
	"d[\\. ]*lgs\\.?",
	"d[\\. ]*lvo\\.?)"
  ],
  "dpr": [
	"d[\\. ]*p[\\. ]*r\\.?",
	"decreto del presidente della repubblica"
  ],
  "provvedimento": [
	"({{leggecost}}",
	"{{legge}}",
	"{{dlgs}}",
	"{{dl}}",
	"{{dpr}})"
  ],
  "numero": [
	"\\d+"
  ],

  "day":"(?:0?[1-9]|[1-3][0-9])[°º]*",
  "year":"(\\d){4}",
  "numMonth":"(\\d){1,2}",
  "dateSep":"(?:\\\\|\/|-|\\.)",
  "monthNames":[
	"gen(?:naio)?",
	"feb(?:braio)?",
	"mar(?:zo)?",
	"apr(?:ile)?",
	"mag(?:gio)?",
	"giu(?:gno)?",
	"lug(?:lio)?",
	"ago(?:sto)?",
	"set(?:tembre)?",
	"ott(?:obre)?",
	"nov(?:embre)?",
	"dic(?:embre)?"
  ],

  "date": [
	"({{day}})\\s*({{dateSep}})\\s*({{numMonth}})\\s*({{dateSep}})\\s*({{year}})",
	"({{day}})\\s*\\s*({{monthNames}})\\s*({{year}})"
  ],

  "numSep": [
	" del ",
	"/"
  ],

  "numTag": [
	"numero",
	"num",
	"n\\.?"
  ],

  "articoloTag": [
	"(articolo",
	"artt?\\.?)"
  ],

  "commaTag": [
	"(comma",
	"co\\.?)"
  ],

  "pointTag": [
	"(numero",
	"num\\.?",
	"nn?\\.?",
	"lettera",
	"lett\\.?)"
  ],

  "ordinalNumbers": [
	"(prim[oa]",
	"second[oa]",
	"terz[oa]",
	"quart[oa]",
	"quint[oa]",
	"sest[oa]",
	"settim[oa]",
	"ottav[oa]",
	"non[oa]",
	"decim[oa])"
  ],
  "numerale":[
	"(vicies",
	"novies[ -]*decies",
	"octies[ -]*decies",
	"septies[ -]*decies",
	"sedecies",
	"quindecies",
	"quater[ -]*decies",
	"ter[ -]*decies",
	"duodecies",
	"undecies",
	"decies",
	"novies",
	"nonies",
	"octies",
	"septies",
	"sexies",
	"quinquies",
	"quinques",
	"quater",
	"ter",
	"bis)"
  ],

  "numeroArticolo": [
	"({{numero}}([- ]*{{numerale}})?)"
  ],

  "rifProvvedimento": [
	"({{provvedimento}}( {{numTag}})? {{numero}} del {{date}}",
	"{{provvedimento}}( {{numTag}})? {{numero}}{{numSep}}{{year}}",
	"{{provvedimento}}( del)? {{date}}( {{numTag}})? {{numero}})"
  ],

  "rifArticolo": [
	"{{articoloTag}} {{numeroArticolo}}"
  ],

  "patterns": [
	"{{rifArticolo}}"
  ]
}
