{
	"asyncFunction": {
		"addressGood": "http://localhost/",
		"addressBad": "http://localhost/pippo"
	},
	"syncFunction": {
		"addressGood": "http://localhost/",
		"addressBad": "http://localhost/pippo"
	}
}
