{
	"locationNames": [
		"Aosta",
		"Torino",
		"Milano",
		"Bolzano",
		"Venezia",
		"Trieste",
		"Genova",
		"Bologna",
		"Roma",
		"Firenze",
		"Ancona",
		"Perugia",
		"L'Aquila",
		"Campobasso",
		"Napoli",
		"Bari",
		"Potenza",
		"Catanzaro",
		"Palermo",
		"Cagliari",
		"Stromboli"
	],
	"patterns": [
		"({{locationNames}})"
	]
}
