{
	"transitionalInit": [
		"Disposizion[ei] transitori[ae]."
	],
	"content":"([\\s\\S]*?)",
	"conclusionInitList": [
		"La\\s+presente\\s+legge\\s+costituzionale,?",
		"Il\\s+presente\\s+decreto,?",
		"La\\s+presente\\s+legge,",
		"Il +presente +decreto +sar.{1,2} +pubblicato +nella +Gazzetta +Ufficiale +della +Repubblica +italiana.",
		"La +presente +legge +regionale +sarà +pubblicata +nel +Bollettino +Ufficiale +della +Regione.",
		"Dat[oa] a Roma,?",
		"Roma,"
	],
	"patterns": [
		"({{transitionalInit}})({{content}})({{conclusionInitList}})"
	]
}
