{
	"day":"(?:0?[1-9]|[1-3][0-9])[°º]*",
	"year":"(\\d){4}",
	"numMonth":"(\\d){1,2}",
	"dateSep":"(?:\\\\|\/|-|\\.)",
	"monthNames":[
		"gen(?:naio)?",
		"feb(?:braio)?",
		"mar(?:zo)?",
		"apr(?:ile)?",
		"mag(?:gio)?",
		"giu(?:gno)?",
		"lug(?:lio)?",
		"ago(?:sto)?",
		"set(?:tembre)?",
		"ott(?:obre)?",
		"nov(?:embre)?",
		"dic(?:embre)?"
	],
	"patterns":[
		"({{day}})\\s*({{dateSep}})\\s*({{numMonth}})\\s*({{dateSep}})\\s*({{year}})",
		"({{day}})\\s*\\s*({{monthNames}})\\s*({{year}})"
	]
}
