[ Element {
    _nsMap: {},
    ownerDocument:
     Document {
       implementation: [Object],
       childNodes: [Object],
       doctype: null,
       documentURI: undefined,
       documentElement: [Object],
       firstChild: [Object],
       lastChild: [Object],
       _inc: 1083 },
    nodeName: 'paragraphs',
    tagName: 'paragraphs',
    childNodes: { '0': [Object], '1': [Object], '2': [Object], length: 3 },
    attributes: { _ownerElement: [Circular] },
    parentNode:
     Element {
       _nsMap: {},
       ownerDocument: [Object],
       nodeName: 'content',
       tagName: 'content',
       childNodes: [Object],
       attributes: [Object],
       parentNode: [Object],
       previousSibling: [Object],
       nextSibling: null,
       firstChild: [Circular],
       lastChild: [Circular] },
    previousSibling: null,
    nextSibling: null,
    firstChild:
     Element {
       _nsMap: {},
       ownerDocument: [Object],
       nodeName: 'point',
       tagName: 'point',
       childNodes: [Object],
       attributes: [Object],
       firstChild: [Object],
       lastChild: [Object],
       parentNode: [Circular],
       previousSibling: null,
       nextSibling: [Object] },
    lastChild:
     Element {
       _nsMap: {},
       ownerDocument: [Object],
       nodeName: 'point',
       tagName: 'point',
       childNodes: [Object],
       attributes: [Object],
       firstChild: [Object],
       lastChild: [Object],
       parentNode: [Circular],
       previousSibling: [Object],
       nextSibling: null } },
  Element {
    _nsMap: {},
    ownerDocument:
     Document {
       implementation: [Object],
       childNodes: [Object],
       doctype: null,
       documentURI: undefined,
       documentElement: [Object],
       firstChild: [Object],
       lastChild: [Object],
       _inc: 1083 },
    nodeName: 'paragraphs',
    tagName: 'paragraphs',
    childNodes:
     { '0': [Object],
       '1': [Object],
       '2': [Object],
       '3': [Object],
       '4': [Object],
       '5': [Object],
       '6': [Object],
       '7': [Object],
       '8': [Object],
       length: 9 },
    attributes: { _ownerElement: [Circular] },
    parentNode:
     Element {
       _nsMap: {},
       ownerDocument: [Object],
       nodeName: 'content',
       tagName: 'content',
       childNodes: [Object],
       attributes: [Object],
       parentNode: [Object],
       previousSibling: [Object],
       nextSibling: null,
       firstChild: [Circular],
       lastChild: [Circular] },
    previousSibling: null,
    nextSibling: null,
    firstChild:
     Element {
       _nsMap: {},
       ownerDocument: [Object],
       nodeName: 'point',
       tagName: 'point',
       childNodes: [Object],
       attributes: [Object],
       firstChild: [Object],
       lastChild: [Object],
       parentNode: [Circular],
       previousSibling: null,
       nextSibling: [Object] },
    lastChild:
     Element {
       _nsMap: {},
       ownerDocument: [Object],
       nodeName: 'point',
       tagName: 'point',
       childNodes: [Object],
       attributes: [Object],
       firstChild: [Object],
       lastChild: [Object],
       parentNode: [Circular],
       previousSibling: [Object],
       nextSibling: null } } ]
