{
	"authority": [
		"(?:comitato centrale per l\\'albo nazionale delle persone fisiche e giuridiche che esercitano l\\'autotrasporto di cose per conto di terzi",
		"ministro per compiti politici particolari e di coordinamento, speciale riguardo alla presidenza della delegazione italiana all\\'onu",
		"comitato dei ministri per l\\'esecuzione di opere straordinarie di pubblico interesse nell\\'italia settentrionale e centrale",
		"conferenza permanente per i rapporti tra lo stato, le regioni e le province autonome di trento e di bolzano",
		"ministro per compiti politici, con particolare riguardo agli enti vigilati dalla presidenza del consiglio",
		"comitato dei ministri per l\\'esecuzione di opere straordinarie per l\\'italia settentrionale e centrale",
		"garante per la tutela delle persone e di altri soggetti rispetto al trattamento dei dati personali",
		"commissione di garanzia dell\\'attuazione della legge sullo sciopero nei servizi pubblici essenziali",
		"ministero della pubblica istruzione e dell\\'università e della ricerca scientifica e tecnologica",
		"commissione parlamentare per l\\'indirizzo generale e la vigilanza dei servizi radio televisivi",
		"ministro per la riforma della pubblica amministrazione e per l\\'attuazione della costituzione",
		"ministro per gli interventi straordinari nel mezzogiorno e le zone depresse del centro-nord",
		"autorità di bacino interregionale dei fiumi trigno, biferno e minori, saccione e fortore",
		"istituto nazionale per la valutazione del sistema educativo di istruzione e di formazione",
		"comitato nazionale dell\\'albo delle imprese esercenti servizi di smaltimento dei rifiuti",
		"ministro per il coordinamento delle iniziative per la ricerca scientifica e tecnologica",
		"ministro dell\\'industria, del commercio e dell\\'artigianato e del commercio con l\\'estero",
		"ministro dell\\'industria, del commercio, dell\\'artigianato e del commercio con l\\'estero",
		"autorità di bacino dei fiumi isonzo, tagliamento, livenza, piave, brenta-bacchiglione",
		"ministro per il coordinamento delle politiche comunitarie e degli affari regionali",
		"autorità per la vigilanza sui contratti pubblici di lavoro, servizi e forniture",
		"istituto nazionale di previdenza per i dipendenti dell\\'amministrazione pubblica",
		"istituto per la vigilanza sulle assicurazioni private e di interesse collettivo",
		"ministro per l\\'organizzazione della pubblica amministrazione e delle regioni",
		"ministero dell\\'industria, del commercio e artigianato e del commercio estero",
		"federazione nazionale degli ordini dei medici chirurghi e degli odontoiatri",
		"luiss[ -]+libera università internazionale degli studi sociali guido carli",
		"corte suprema di cassazione[ -]+quinta sezione civile \\(sezione tributaria\\)",
		"comitato interministeriale per il coordinamento della politica industriale",
		"comitato dei ministri per la cassa per il mezzogiorno e le zone depresse",
		"comitato interministeriale per la programmazione economica nel trasporto",
		"istituto nazionale di previdenza per i dirigenti di aziende industriali",
		"ministro per le riforme e le innovazioni nella pubblica amministrazione",
		"agenzia per la rappresentanza negoziale delle pubbliche amministrazioni",
		"istituto nazionale di oceanografia e di geofisica sperimentale[ -]+ogs",
		"istituto nazionale per l\\'assicurazione contro gli infortuni sul lavoro",
		"corte suprema di cassazione[ -]+ufficio elettorale centrale nazionale",
		"conferenza unificata stato-regioni e stato-città ed autonomie locali",
		"ministero dell\\'università e della ricerca scientifica e tecnologica",
		"ministro per i rapporti con il parlamento e le riforme istituzionali",
		"commissario straordinario di governo per l\\'anagrafe nazionale bovina",
		"consorzio per l\\'area di ricerca scientifica e tecnologica di trieste",
		"ministero dell\\'università e della ricerca tecnologica e scientifica",
		"ministro del tesoro, del bilancio e della programmmazione economica",
		"ministero del tesoro, del bilancio e della programmazione economica",
		"corte suprema di cassazione[ -]+ufficio centrale per il referendum",
		"museo storico della fisica e centro studi e ricerche \"enrico fermi",
		"ministro del tesoro, del bilancio e della programmazione economica",
		"ministro per il coordinamento interno delle politiche comunitarie",
		"ministro per il coordinamento delle politiche dell\\'unione europea",
		"centro nazionale per l\\'informatica nella pubblica amministrazione",
		"libera università internazionale degli studi sociali guido carli",
		"conferenza dei presidenti delle regioni e delle province autonome",
		"istituto nazionale per la valutazione del sistema dell\\'istruzione",
		"istituto nazionale per studi ed esperienze di architettura navale",
		"ministero dell\\'ambiente e della tutela del territorio e del mare",
		"ministro dell\\'ambiente e della tutela del territorio e del mare",
		"istituto superiore per la prevenzione e la sicurezza del lavoro",
		"università degli studi del piemonte orientale amedeo avogadro",
		"istituto nazionale di oceanografia e di geofisica sperimentale",
		"alto commissario per il coordinamento della protezione civile",
		"ministro per i problemi relativi all\\'attuazione delle regioni",
		"ministro per l\\'organizzazione della pubblica amministrazione",
		"comitato nazionale di parità e pari opportunità nel lavoro",
		"consiglio per la ricerca e la sperimentazione in agricoltura",
		"commissario delegato per la sicurezza dei materiali nucleari",
		"ministro per la funzione pubblica e per gli affari regionali",
		"ministro per gli affari regionali e i problemi istituzionali",
		"comitato dei ministri per il mezzogiorno e le zone depresse",
		"commissario del governo nella regione friuli-venezia giulia",
		"ministero dell\\'istruzione, dell\\'università e della ricerca",
		"ministro per le politiche giovanili e le attività sportive",
		"ministero delle politiche agricole, alimentari e forestali",
		"commissario delegato per l\\'emergenza alluvione in sardegna",
		"commissario governativo per l\\'emergenza idrica in sardegna",
		"ministero dell\\'industria, del commercio e dell\\'artigianato",
		"ministro del lavoro, della salute e delle politiche sociali",
		"autorità per l\\'informatica nella pubblica amministrazione",
		"comitato interministeriale per la programmazione economica",
		"ministro per il coordinamento delle politiche comunitarie",
		"commissario straordinario di governo per l\\'emergenza bse",
		"autorità di bacino dei fiumi liri-garigliano e volturno",
		"ministro per gli interventi straordinari nel mezzogiorno",
		"ministro per la pubblica amministrazione e l\\'innovazione",
		"comitato interministeriale per il credito e il risparmio",
		"ministro per gli affari regionali e la funzione pubblica",
		"azienda di stato per gli interventi nel mercato agricolo",
		"istituto nazionale per l\\'assistenza ai dipendenti locali",
		"ministro dell\\'industria, del commercio e dell\\'artigianato",
		"ministero del bilancio e della programmazione economica",
		"ministero delle risorse agricole alimentari e forestali",
		"ministro per gli affari regionali e le autonomie locali",
		"università degli studi mediterranea di reggio calabria",
		"ministro per la riforma della pubblica amministrazione",
		"consiglio di presidenza della giustizia amministrativa",
		"ministero dell\\'università e della ricerca scientifica",
		"ministro per i rapporti fra il governo e il parlamento",
		"corte suprema di cassazione[ -]+seconda sezione penale",
		"ministro per le riforme istituzionali e la devoluzione",
		"corte suprema di cassazione[ -]+seconda sezione civile",
		"istituto nazionale di alta matematica francesco severi",
		"corte suprema di cassazione[ -]+settima sezione penale",
		"libera università internazionale degli studi sociali",
		"corte suprema di cassazione[ -]+quinta sezione penale",
		"ministro per il coordinamento della protezione civile",
		"corte suprema di cassazione[ -]+quarta sezione penale",
		"ministero dell\\'ambiente e della tutela del territorio",
		"comitato dei ministri per la cassa per il mezzogiorno",
		"autorità di bacino interregionale marecchia e conca",
		"corte suprema di cassazione[ -]+sezioni unite civili",
		"corte suprema di cassazione[ -]+prima sezione penale",
		"commissione tributaria regionale dell\\'emilia romagna",
		"corte suprema di cassazione[ -]+prima sezione civile",
		"segretariato generale della giustizia amministrativa",
		"corte suprema di cassazione[ -]+terza sezione civile",
		"corte suprema di cassazione[ -]+sesta sezione penale",
		"l’assemblea federale della confederazione svizzera",
		"ente per le nuove tecnologie, l\\'energia e l\\'ambiente",
		"corte suprema di cassazione[ -]+sezioni unite penali",
		"ministero dell\\'industria, del commercio e del lavoro",
		"la camera dei deputati ed il senato della repubblica",
		"corte suprema di cassazione[ -]+terza sezione penale",
		"autorità di bacino interregionale del fiume tevere",
		"ministero per la famiglia e la solidarietà sociale",
		"alto commissario per l\\'igiene e la sanità pubblica",
		"istituto elettrotecnico nazionale galileo ferraris",
		"autorità di bacino interregionale del fiume magra",
		"autorità di bacino interregionale del fiume fiora",
		"ministro per l\\'attuazione del programma di governo",
		"ministro per le riforme elettorali e istituzionali",
		"consiglio di presidenza della giustizia tributaria",
		"ministro per la famiglia e la solidarietà sociale",
		"autorità di bacino interregionale del fiume sele",
		"università degli studi di modena e reggio emilia",
		"seconda università statale degli studi di milano",
		"autorità garante della concorrenza e del mercato",
		"ministero dei trasporti e della marina mercantile",
		"libera università di lingue e comunicazione iulm",
		"scuola internazionale superiore di studi avanzati",
		"università commerciale \"luigi bocconi\" di milano",
		"università telematica internazionale \"uninettuno",
		"istituto universitario di architettura di venezia",
		"ministro per la ricerca scientifica e tecnologica",
		"assessorato regionale all\\'assetto del territorio",
		"commissione tributaria regionale della lombardia",
		"commissione nazionale per le società e la borsa",
		"libero istituto universitario campus bio-medico",
		"commissione tributaria regionale della sardegna",
		"libera università \"maria s.s. assunta\" di roma",
		"università degli studi g. d\\'annunzio di chieti",
		"ministero del lavoro e della previdenza sociale",
		"ministero dei trasporti e dell\\'aviazione civile",
		"ministero delle poste e delle telecomunicazioni",
		"istituto di previdenza per il settore marittimo",
		"ministero del lavoro e delle politiche sociali",
		"ministero delle politiche agricole e forestali",
		"istituto nazionale per la fisica della materia",
		"autorità per la vigilanza sui lavori pubblici",
		"amministrazione autonoma dei monopoli di stato",
		"ministro delle poli-tiche agricole e forestali",
		"ministro del lavoro e della previdenza sociale",
		"ministero delle infrastrutture e dei trasporti",
		"istituto nazionale di geofisica e vulcanologia",
		"università degli studi di napoli l\\'orientale",
		"istituto italiano di scienze umane di firenze",
		"osservatorio astronomico di collurania-teramo",
		"ministro per i problemi relativi alle regioni",
		"ministro per i diritti e le pari opportunità",
		"ministro delle infrastrutture e dei trasporti",
		"università degli studi di napoli federico ii",
		"università italiana per stranieri di perugia",
		"ministero per i beni e le attività culturali",
		"autorità per le garanzie nelle comunicazioni",
		"autorità di bacino pilota del fiume serchio",
		"università degli studi di napoli parthenope",
		"ministro per i beni e le attività culturali",
		"garante per la protezione dei dati personali",
		"istituto universitario suor orsola benincasa",
		"gestore della rete di trasmissione nazionale",
		"università degli studi di roma tor vergata",
		"autorità di bacino interregionale del reno",
		"ministro dei beni culturali e dell\\'ambiente",
		"stazione zoologica \"anthon dohrn\" di napoli",
		"commissione tributaria regionale del veneto",
		"ministero per i beni culturali e ambientali",
		"ministro per il turismo e per lo spettacolo",
		"garante per la radiodiffusione e l\\'editoria",
		"ministero dei trasporti e della navigazione",
		"stazione astronomica di cagliari-carloforte",
		"commissione di vigilanza sui fondi pensione",
		"libera università vita-salute san raffaele",
		"ministero dell\\'ambiente e delle aree urbane",
		"istituto nazionale della previdenza sociale",
		"istituto nazionale per il commercio estero",
		"corte di giustizia delle comunità europee",
		"università degli studi di urbino carlo bo",
		"ministero dell\\'università e della ricerca",
		"università telematica delle scienze umane",
		"ministro per l\\'innovazione e le tecnologie",
		"università degli studi di reggio calabria",
		"commissione tributaria regionale del lazio",
		"istituto universitario orientale di napoli",
		"autorità per l\\'energia elettrica e il gas",
		"commissione per le adozioni internazionali",
		"ministro per i problemi delle aree urbane",
		"istituto nazionale di ricerca metrologica",
		"università telematica giustino fortunato",
		"ministro per i rapporti con il parlamento",
		"ministro per le politiche per la famiglia",
		"istituto nazionale per la fauna selvatica",
		"seconda università degli studi di napoli",
		"ministero dell\\'industria e del commercio",
		"università telematica guglielmo marconi",
		"organizzazione mondiale per il commercio",
		"università degli studi della basilicata",
		"ministero del turismo e dello spettacolo",
		"agenzia per le erogazioni in agricoltura",
		"istituto universitario di lingue moderne",
		"osservatorio astronomico di capodimonte",
		"ministro per i problemi della gioventù",
		"ministero dell\\'economia e delle finanze",
		"organizzazione marittima internazionale",
		"ente nazionale per l\\'assistenza al volo",
		"azienda nazionale autonoma delle strade",
		"consiglio superiore dei lavori pubblici",
		"comitato per le aree naturali protette",
		"corte di giustizia dell\\'unione europea",
		"ministro per la riforma amministrativa",
		"ministro dell\\'economia e delle finanze",
		"presidente del senato della repubblica",
		"ministero del commercio internazionale",
		"consiglio superiore della magistratura",
		"ministro per il turismo e per lo sport",
		"ministero delle partecipazioni statali",
		"istituto nazionale di fisica nucleare",
		"ministero per le attività produttive",
		"università cattolica del sacro cuore",
		"comitato interministeriale dei prezzi",
		"presidente del consiglio dei ministri",
		"ministro per le riforme istituzionali",
		"università degli studi dell\\'insubria",
		"presidenza del consiglio dei ministri",
		"ministro per le politiche comunitarie",
		"ente nazionale per l\\'aviazione civile",
		"consiglio della magistratura militare",
		"ministro per la cassa del mezzogiorno",
		"università di scienze gastronomiche",
		"autorità di bacino della basilicata",
		"università degli studi della tuscia",
		"ministero della solidarietà sociale",
		"università per stranieri di perugia",
		"ministro per la politica comunitaria",
		"ministero delle finanze e del tesoro",
		"alto commissario per l\\'alimentazione",
		"ministro per la solidarietà sociale",
		"università politecnica delle marche",
		"istituto italiano di studi germanici",
		"ministero del commercio con l\\'estero",
		"comitato economico e sociale europeo",
		"ministero dell\\'agricoltura e foreste",
		"presidente della camera dei deputati",
		"università degli studi di macerata",
		"università degli studi di camerino",
		"osservatorio astronomico di palermo",
		"università degli studi dell\\'aquila",
		"osservatorio astronomico di trieste",
		"ministero per le politiche agricole",
		"ministro per la riforma burocratica",
		"ministero della pubblica istruzione",
		"osservatorio astronomico di bologna",
		"ministro per gli italiani nel mondo",
		"osservatorio astrofisico di catania",
		"università degli studi di cagliari",
		"ministro delle attività produttive",
		"ministro per la ricerca scientifica",
		"autorità di bacino del fiume adige",
		"università degli studi di palermo",
		"università degli studi del sannio",
		"autorità di bacino del fiume arno",
		"università degli studi di ferrara",
		"comunita europea carbone e acciaio",
		"università ca\\' foscari di venezia",
		"università degli studi di firenze",
		"università degli studi di bologna",
		"consiglio nazionale delle ricerche",
		"università degli studi di cassino",
		"consiglio di cooperazione doganale",
		"osservatorio astronomico di torino",
		"università degli studi di salerno",
		"università degli studi di perugia",
		"osservatorio astronomico di padova",
		"università degli studi di messina",
		"università degli studi di trieste",
		"università degli studi del molise",
		"ministero dello sviluppo economico",
		"università degli studi di catania",
		"comitato nazionale per la bioetica",
		"università degli studi di foggia",
		"ministro per la funzione pubblica",
		"osservatorio astronomico di brera",
		"ministro per gli affari regionali",
		"università degli studi di urbino",
		"ministro per le politiche europee",
		"università degli studi di verona",
		"università suor orsola benincasa",
		"consiglio delle comunità europee",
		"università degli studi di modena",
		"cassa di compensazione e garanzia",
		"ministero della marina mercantile",
		"università degli studi di ancona",
		"università degli studi di padova",
		"università degli studi di teramo",
		"consiglio nazionale del notariato",
		"università degli studi di genova",
		"consiglio di sicurezza dell\\'o\\.?n\\.?u\\.?",
		"ministro per le pari opportunità",
		"ministro dello sviluppo economico",
		"istituto nazionale di astrofisica",
		"università degli studi di pavia",
		"università degli studi di parma",
		"autorità di bacino della puglia",
		"ministero delle risorse agricole",
		"comunita europea energia atomica",
		"autorità di bacino del fiume po",
		"università degli studi roma tre",
		"osservatorio astronomico di roma",
		"istituto nazionale di statistica",
		"università degli studi di siena",
		"università degli studi di lecce",
		"università degli studi di udine",
		"scuola normale superiore di pisa",
		"università degli studi di pisa",
		"ministero di grazia e giustizia",
		"ministro per le privatizzazioni",
		"ministro per gli affari sociali",
		"università della valle d\\'aosta",
		"ministro con incarichi speciali",
		"avvocatura generale dello stato",
		"centro europeo dell\\'educazione",
		"scuola imt alti studi di lucca",
		"parlamento europeo e del consiglio",
		"parlamento europeo e consiglio",
		"ministero dell\\'africa italiana",
		"ministero per i beni culturali",
		"ministero delle infrastrutture",
		"commissione unica del farmaco",
		"libera università di bolzano",
		"ministero degli affari esteri",
		"istituto superiore di sanità",
		"ministero per le corporazioni",
		"ministero delle comunicazioni",
		"provincia autonoma di bolzano",
		"regione friuli-venezia-giulia",
		"ministero dei lavori pubblici",
		"registro aeronautico italiano",
		"ente nazionale per le strade",
		"ministro degli affari esteri",
		"provincia autonoma di trento",
		"capo provvisorio dello stato",
		"agenzia italiana del farmaco",
		"tribunale penale di messina",
		"corte suprema di cassazione",
		"ministro dei beni culturali",
		"presidenza della repubblica",
		"consiglio comunità europea",
		"comunità economica europea",
		"presidente della repubblica",
		"ministro per l\\'immigrazione",
		"regione trentino-alto-adige",
		"università della calabria",
		"ufficio italiano dei cambi",
		"commissione unione europea",
		"agenzia spaziale italiana",
		"ministero dell\\'istruzione",
		"ministero della giustizia",
		"cassa depositi e prestiti",
		"ministro della giustizia",
		"automobile club d\\'italia",
		"consiglio unione europea",
		"ministero dell\\'industria",
		"ministero dell\\'ambiente",
		"ministero della sanità",
		"commissario prefettizio",
		"senato della repubblica",
		"ministero dei trasporti",
		"università del salento",
		"ministero delle finanze",
		"banca centrale europea",
		"ministero della salute",
		"ministero della difesa",
		"ministro dell\\'ambiente",
		"agenzia del territorio",
		"ministro delle finanze",
		"ministero del bilancio",
		"ministro dell\\'ecologia",
		"regione emilia-romagna",
		"osservatorio vesuviano",
		"ministero dell\\'interno",
		"università di bergamo",
		"ministro dell\\'interno",
		"agenzia delle entrate",
		"università di milano",
		"ministro della salute",
		"regione valle d\\'aosta",
		"ministro della difesa",
		"prefettura di sondrio",
		"ministro della sanita",
		"ministro dei trasporti",
		"università di torino",
		"politecnico di milano",
		"corte costituzionale",
		"ministero del tesoro",
		"agenzia delle dogane",
		"conferenza unificata",
		"camera dei deputati",
		"consiglio regionale",
		"università di bari",
		"università di bologna",
		"agenzia del demanio",
		"politecnico di bari",
		"consiglio d\\'europa",
		"consiglio di stato",
		"consiglio comunale",
		"guardia di finanza",
		"parlamento europeo",
		"regione basilicata",
		"comunità europea",
		"regione lombardia",
		"capo del governo",
		"regione campania",
		"regione calabria",
		"giunta regionale",
		"regione sardegna",
		"regione piemonte",
		"regione toscana",
		"regione abruzzo",
		"regione liguria",
		"corte dei conti",
		"giunta comunale",
		"regione sicilia",
		"unione europea",
		"banca d\\'italia",
		"regione molise",
		"regione puglia",
		"regione umbria",
		"regione marche",
		"comune di roma",
		"regione veneto",
		"regione lazio",
		"parti sociali",
		"parlamento",
		"ente poste",
		"podestà",
		"sindaco)"
	],
	"docType": [
		"(?:testo unico delle disposizioni legislative e regolamentari in materia di spese di giustizia",
		"contratto collettivo nazionale lavoro personale non dirigente cassa depositi prestiti",
		"ordinanza del commissario delegato per la ricostruzione",
		"ordinanza del capo dipartimento della protezione civile",
		"decreto del capo dipartimento della protezione civile",
		"decreto del commissario delegato per la ricostruzione",
		"direttiva del presidente del consiglio dei ministri",
		"ordinanza del presidente del consiglio dei ministri",
		"direttiva del dipartimento della protezione civile",
		"decreto del presidente del consiglio dei ministri",
		"delibera dell\\'assemblea legislativa regionale",
		"testo unico delle leggi di pubblica sicurezza",
		"contratto collettivo nazionale del lavoro",
		"accordo procedimentale interministeriale",
		"decreto[ -]+legislativo luogotenenziale",
		"decreto del presidente della repubblica",
		"delibera del consiglio dei ministri",
		"decreto[ -]+legge luogotenenziale",
		"delibera della giunta regionale",
		"direttiva dell\\'unione europea",
		"regio decreto[ -]+legislativo",
		"accordo collettivo nazionale",
		"decret[oi] ministerial[ie]",
		"codice di procedura penale",
		"decreto interministeriale",
		"regolamento modificativo",
		"regio decreto[ -]+legge",
		"comunicato di rettifica",
		"decreto[ -]+legislativo",
		"decreto luogotenenziale",
		"ordinanza commissariale",
		"protocollo di adesione",
		"memorandum d\\'intesa",
		"legge costituzionale",
		"decreto prefettizio",
		"commissione europea",
		"mancata conversione",
		"delibera consiliare",
		"codice del consumo",
		"protocollo intesa",
		"decreto[ -]+legge",
		"relazione decreto",
		"accordo programma",
		"entrata in vigore",
		"atto regolazione",
		"estratto decreto",
		"avviso rettifica",
		"testo aggiornato",
		"testo coordinato",
		"raccomandazione",
		"legge regionale",
		"ripubblicazione",
		"line[ae] guida",
		"determinazione",
		"autorizzazione",
		"errata corrige",
		"legge federale",
		"codice civile",
		"regio decreto",
		"provvedimento",
		"deliberazione",
		"delibera cipe",
		"comunicazione",
		"codice penale",
		"direttiv[ae]",
		"costituzione",
		"disposizione",
		"regolamento",
		"testo unico",
		"risoluzione",
		"convenzione",
		"istruzioni",
		"comunicato",
		"istruzione",
		"protocollo",
		"circolare",
		"decisione",
		"relazione",
		"ordinanza",
		"documento",
		"trattato",
		"sentenza",
		"legg[ei]",
		"delibera",
		"decreto",
		"accordo",
		"statuto",
		"parere",
		"intesa",
		"codice",
		"o\\.? ?c\\.? ?d\\.? ?p\\.? ?c\\.?",
		"d\\.? ?p\\.? ?c\\.? ?m\\.?",
		"d\\.? ?p\\.? ?r\\.?",
		"d\\.? ?g\\.? ?r\\.?",
		"p\\.? ?d\\.? ?g\\.?",
		"d\\.? ?l[\\.gs]*",
		"\\bd\\.? ?i\\.*\\b",
		"pp\\.d\\.?g\\.",
		"d\\.? ?m\\.?",
		"l\\.? ?r\\.*",
		"\\bl\\.?\\b)"
	],
	"docNum": "(?:\\b(?:n[\\.° ]+)?\\d+/\\d+(?:/\\(?[a-z]{2,6}\\)?)*\\b|\\bn[\\.° ]+\\d+\\b|\\bnumero +\\d+\\b)",
	"number":"(?:\\b(?:n[\\.° ]+)?\\d+(?:\\.\\d+)*\\b|\\b[ivx]+\\b)",
	"patterns": [
		"({{docType}}) ({{docNum}}) del ({{authority}}), del ({{date}})",
		"({{docType}}) del ({{authority}}) del ({{date}}), ({{docNum}})",
		"({{docType}}) ({{docNum}}) del ({{authority}}) del ({{date}})",
		"({{docType}}) del ({{authority}}) del ({{date}}) ({{docNum}})",
		"({{docType}}) ({{date}})",
		"({{docType}}) del ({{authority}}) ({{date}}),? ({{docNum}})",
		"({{docType}}) del ({{authority}}) in data ({{date}})",
		"({{docType}}) del ({{authority}}) del ({{date}})",
		"({{docType}}) ({{docNum}}) del ({{authority}})",
		"({{docType}}) del ({{authority}}) ({{date}})",
		"({{docType}}) ({{docNum}}) dell\\' ?({{date}})",
		"({{docType}}) del ({{date}})[, ]+({{docNum}})",
		"({{docType}}) ({{docNum}}) dell\\' ?({{date}})",
		"({{docType}}) ({{docNum}}) del ({{date}})",
		"({{docType}}) ({{docNum}}) del ({{number}})",
		"({{docType}}) ({{date}})[, ]+({{docNum}})",
		"({{docType}}) \\(ce\\) ({{docNum}})",
		"({{docType}}) del ({{date}})",
		"({{docType}}) ({{docNum}})"
	]
}
